{
  "metadata": {
    "uri": "some uri - not used",
    "id": "personal id, it is not used"
  },
  "data": {
    "files": [
      {
        "path": "database\\assay\\6\\mols.sdf"
      }
    ],
    "train": {
      "decoys": [
        "10321179",
        "10321355",
        "10321395",
        "10321115",
        "10321215",
        "10321576",
        "10321922",
        "10321219",
        "10321796"
      ],
      "actives": [
        "10321700",
        "10321649",
        "10321720",
        "10321629",
        "10321397",
        "10321438",
        "10321463",
        "10321685"
      ]
    },
    "test": [
      "10321953",
      "10321642",
      "10321627",
      "10321398",
      "10321914",
      "10321225",
      "10321724",
      "10321382",
      "10321848",
      "10321971"
    ]
  }
}