{
  "test": {
    "comment": [
      "0 ... configuration for test of a program written in python modified for optimalization launching",
      "all attributes are required",
      "optimalization has to be set on yes",
      "repr_method = location of a method which services for creating a reprezentation of molecules",
      "sim_method = location of a method which services for creating a score of molecules",
      "typefile has to be set on python",
      "repeat = count of selection which should be launched",
      "selections = yes if user has fulfilled section d/s and wants to use this selections for test else no",
      "user = id of user which carryes out the test",
      "d/s = identifications of data sets and selections",
      "task_type has to be set on run which means that this is test command",
      "parallel_selections = True if tests on selections should be launched parallel else False"
    ],
    "0": {
      "d/s": [
        {
          "dataset": "1",
          "selection": "5"
        },
        {
          "dataset": "13",
          "selection": "23"
        }
      ],
      "optimalization": "yes",
      "typefile": "python",
      "repr_method": "../test_func/method_TTFDS_opt",
      "sim_method": "../test_func/method_TTFDS_opt",
      "repeat": "5",
      "task_type": "run",
      "selections": "yes",
      "user": 1,
      "parallel_selections": "False"
    },
    "comment": [
      "1 ... configuration for test of a program written in python modified for non-optimalization launching",
      "all attributes are required",
      "optimalization has to be set on no",
      "repr_method = location of a method which services for creating a reprezentation of molecules",
      "sim_method = location of a method which services for creating a score of molecules",
      "typefile has to be set on python",
      "repeat = count of selection which should be launched",
      "selections = yes if user has fulfilled section d/s and wants to use this selections for test else no",
      "user = id of user which carryes out the test",
      "d/s = identifications of data sets and selections",
      "task_type has to be set on run which means that this is test command",
      "parallel_selections = True if tests on selections should be launched parallel else False"
    ],
    "1": {
      "d/s": [
        {
          "dataset": "16",
          "selection": "36"
        },
        {
          "dataset": "5",
          "selection": "25"
        }
      ],
      "optimalization": "no",
      "typefile": "python",
      "repr_method": "../test_func/method_APFFS",
      "sim_method": "../test_func/method_APFFS",
      "repeat": "5",
      "task_type": "run",
      "selections": "yes",
      "user": 1,
      "parallel_selections": "False"
    },
    "comment": [
      "2 ... configuration for test of a program written in another program language than python",
      "all attributes are required",
      "file = location of a file with a program",
      "typefile has to be set on general",
      "repeat = count of selection which should be launched",
      "selections = yes if user has fulfilled section d/s and wants to use this selections for test else no",
      "user = id of user which carryes out the test",
      "d/s = identifications of data sets and selections",
      "task_type has to be set on run which means that this is test command",
      "parallel_selections = True if tests on selections should be launched parallel else False",
      "parallel_pc = True if you want to carry out the test on more remote computers else False",
      "pc_to_use = a file with characteric of remote computers which should be used in a case of interest (optional if parallel_pc is set on False)",
      "execute_command = command which is given on command line in front of name of execute file at starting (i.e. java, python ...)"
    ],
    "2": {
      "d/s": [
        {
          "dataset": "7",
          "selection": "7"
        },
        {
          "dataset": "19",
          "selection": "42"
        }
      ],
      "typefile": "general",
      "file": "..\\test_func\\main_vs",
      "execute_command": "python",
      "repeat": "5",
      "selections": "yes",
      "user": 1,
      "task_type": "run",
      "parallel_selections": "False",
      "parallel_pc": "False",
      "pc_to_use": "..\\example\\pcToUse.json"
    },
    "comment": [
      "3 ... configuration for test of a program written in python modified for non-optimalization launching which should be carried out on more remote computers",
      "it's possible for general method too",
      "all attributes are required",
      "optimalization can be set on yes/no",
      "repr_method = location of a method which services for creating a reprezentation of molecules",
      "sim_method = location of a method which services for creating a score of molecules",
      "file = location of a file with a program",
      "typefile = set on python/general by choice",
      "repeat = count of selection which should be launched",
      "selections = yes if user has fulfilled section d/s and wants to use this selections for test else no",
      "user = id of user which carryes out the test",
      "d/s = identifications of data sets and selections",
      "task_type has to be set on run which means that this is test command",
      "parallel_selections = True if tests on selections should be launched parallel else False",
      "parallel_pc = True if you want to carry out the test on more remote computers else False",
      "pc_to_use = a file with characteric of remote computers which should be used in a case of interest (optional if parallel_pc is set on False)",
      "execute_command = command which is given on command line in front of name of execute file at starting (i.e. java, python ...)"
    ],
    "3": {
      "d/s": [
        {
          "dataset": "14",
          "selection": "7"
        },
        {
          "dataset": "15",
          "selection": "45"
        }
      ],
      "optimalization": "no",
      "typefile": "python",
      "repr_method": "../test_func/method_just_do",
      "sim_method": "../test_func/method_just_do",
      "repeat": "5",
      "selections": "yes",
      "user": 1,
      "task_type": "run",
      "parallel_selections": "False",
      "parallel_pc": "True",
      "pc_to_use": "..\\example\\pcToUse.json"
    },
    "comment": [
      "4 ... configuration for test of a program written in python modified for non-optimalization launching which should be carried out on the infrastructure Metacentrum",
      "it's possible for a general method too",
      "all attributes are required",
      "optimalization can be set on yes/no",
      "repr_method = location of a method which services for creating a reprezentation of molecules",
      "sim_method = location of a method which services for creating a score of molecules",
      "file = location of a file with a program",
      "typefile = set on python/general by choice",
      "repeat = count of selection which should be launched",
      "selections = yes if user has fulfilled section d/s and wants to use this selections for test else no",
      "user = id of user which carryes out the test",
      "d/s = identifications of data sets and selections",
      "task_type has to be set on run which means that this is test command",
      "parallel_selections = True if tests on selections should be launched parallel else False",
      "metacentrum has to be set on True",
      "execute_command = command which is given on command line in front of name of execute file at starting (i.e. java, python ...)",
      "front_ends_nodes = a path to a file with front nodes of metacentrum",
      "login_data = a path to a file with username and password for logging in on infrastucture Metacentrum"
    ],
    "4": {
      "d/s": [
        {
          "dataset": "14",
          "selection": "7"
        },
        {
          "dataset": "15",
          "selection": "45"
        }
      ],
      "optimalization": "no",
      "typefile": "python",
      "repr_method": "../test_func/method_just_do",
      "sim_method": "../test_func/method_just_do",
      "repeat": "1",
      "task_type": "run",
      "selections": "yes",
      "user": 1,
      "parallel_selections": "False",
      "metacentrum": "True",
      "front_ends_nodes": "..\\metacentrum\\front_nodes.json",
      "login_data": "..\\metacentrum\\config.json"
    },
    "comment": [
      "4 ... get query ... command for manimpulation with databases",
      "task_type = run/put/get/initialize",
      "get = get something from database",
      "put = insert something into database",
      "initialize = initialize of database",
      "task_subtype = None/... = by the type of task",
      "output_file = a path to a file which the result of a query is written in",
      "user_id = id of user which carryes out the test"
    ],
    "5": {
      "output_file": "..\\res.json",
      "task_subtype": "test",
      "task_type": "get",
      "user_id": 1
    },
    "comment": [
      "2 ... configuration for test of a program written in another program language than python",
      "all attributes are required",
      "file = reference on id in SQL database of a file with a program which was already once processed, starts with &",
      "typefile has to be set on general",
      "repeat = count of selection which should be launched",
      "selections = yes if user has fulfilled section d/s and wants to use this selections for test else no",
      "user = id of user which carryes out the test",
      "d/s = identifications of data sets and selections",
      "task_type has to be set on run which means that this is test command",
      "parallel_selections = True if tests on selections should be launched parallel else False",
      "parallel_pc = True if you want to carry out the test on more remote computers else False",
      "pc_to_use = a file with characteric of remote computers which should be used in a case of interest (optional if parallel_pc is set on False)",
      "execute_command = command which is given on command line in front of name of execute file at starting (i.e. java, python ...)"
    ],
    "6": {
      "d/s": [
        {
          "dataset": "7",
          "selection": "7"
        },
        {
          "dataset": "19",
          "selection": "42"
        }
      ],
      "typefile": "general",
      "file": "&5",
      "execute_command": "python",
      "repeat": "5",
      "selections": "yes",
      "user": 1,
      "task_type": "run",
      "parallel_selections": "False",
      "parallel_pc": "False",
      "pc_to_use": "..\\example\\pcToUse.json"
    },
    "comment": [
      "7 ... configuration for test of a program written in python modified for non-optimalization launching",
      "all attributes are required",
      "optimalization has to be set on no",
      "repr_method = reference on id in SQL database of method which was already once processed, starts with &",
      "sim_method = reference on id in SQL database of method which was already once processed, starts with &",
      "typefile has to be set on python",
      "repeat = count of selection which should be launched",
      "selections = yes if user has fulfilled section d/s and wants to use this selections for test else no",
      "user = id of user which carryes out the test",
      "d/s = identifications of data sets and selections",
      "task_type has to be set on run which means that this is test command",
      "parallel_selections = True if tests on selections should be launched parallel else False"
    ],
    "7": {
      "d/s": [
        {
          "dataset": "16",
          "selection": "36"
        },
        {
          "dataset": "5",
          "selection": "25"
        }
      ],
      "optimalization": "no",
      "typefile": "python",
      "repr_method": "&25",
      "sim_method": "&25",
      "repeat": "5",
      "task_type": "run",
      "selections": "yes",
      "user": 1,
      "parallel_selections": "False"
    }
  },
  "comment": [
    "test count = count of tests (optinal)",
    "ignore = names of tests which sould be ignored by processing",
    "parallel_tests = True if tests shoulb be processed parallel else False"
  ],
  "metadata": {
    "test_count": 6,
    "ignore": [
      "comment",
      "6",
      "7"
    ],
    "parallel_tests": "False"
  }
}
